{
	"sEmptyTable": "Keine Einträge vorhanden ",
	"sInfo": "Zeige _START_ bis _END_ von _TOTAL_ Einträgen",
	"sInfoEmpty": "Zeige 0 bis 0 von 0 Einträgen",
	"sInfoFiltered": "(gefiltert von _MAX_ Einträgen)",
	"sInfoPostFix": "",
	"sInfoThousands": ".",
	"sLengthMenu": "Zeige _MENU_ Ergebnisse",
	"sLoadingRecords": "Wird geladen...",
	"sProcessing": "Bitte warten...",
	"sSearch": "Suchergebnisse",
	"sZeroRecords": "Keine Einträge vorhanden.",
	"oPaginate": {
		"sFirst": "Erste",
		"sPrevious": "Vorherige",
		"sNext": "Nächste",
		"sLast": "Letzte"
	},
	"oAria": {
		"sSortAscending": ": aktivieren, um Spalte aufsteigend zu sortieren",
		"sSortDescending": ": aktivieren, um Spalte absteigend zu sortieren"
	}
}