<?xml version="1.0" encoding="utf-8"?>
<!DOCTYPE svg PUBLIC "-//W3C//DTD SVG 1.1//EN" "http://www.w3.org/Graphics/SVG/1.1/DTD/svg11.dtd" [
]>
<svg version="1.1"
	 xmlns="http://www.w3.org/2000/svg" xmlns:xlink="http://www.w3.org/1999/xlink" xmlns:a="http://ns.adobe.com/AdobeSVGViewerExtensions/3.0/"
	 x="0px" y="0px" width="100px" height="96px" viewBox="-0.263 -0.992 100 96" enable-background="new -0.263 -0.992 100 96"
	 xml:space="preserve">

<g id="path6092_1_">
	<path fill="#FABF5D" d="M49.817,0l15.442,31.202l34.457,4.967L74.814,60.495l5.922,34.306L49.904,78.636L19.109,94.87l5.847-34.319
		L0,36.279l34.445-5.044L49.817,0 M49.837,18.077l-8.214,16.691l-1.857,3.774l-4.162,0.609l-18.406,2.695l13.335,12.969l3.015,2.933
		l-0.707,4.146l-3.124,18.339l16.455-8.675l3.721-1.961l3.725,1.953l16.477,8.639l-3.165-18.334l-0.715-4.144l3.008-2.939
		L82.53,41.774L64.117,39.12l-4.163-0.6l-1.865-3.77L49.837,18.077L49.837,18.077z"/>
</g>
</svg>
